[
  {
    "name": "Здоровье и спорт",
    "code": 0
  },
  {
      "name": "Финансы",
      "code": 1
  },
  {
      "name": "Семья",
      "code": 2
  },
  {
      "name": "Личностный рост",
      "code": 3
  },
  {
      "name": "Яркость жизни",
      "code": 4
  },
  {
      "name": "Духовность",
      "code": 5
  },
  {
      "name": "Друзья",
      "code": 6
  },
  {
      "name": "Бизнес и карьера",
      "code": 7
  }
  
  
]
